[
  {
    "description": "  Eu quero busca os usuários",
    "keyword": "Feature",
    "name": "Cenário Buscas",
    "line": 1,
    "id": "cenário-buscas",
    "tags": [],
    "uri": "buscar-usuario.feature",
    "elements": [
      {
        "id": "cenário-buscas;buscando-usuário",
        "keyword": "Scenario",
        "line": 5,
        "name": "Buscando usuário",
        "tags": [],
        "type": "scenario",
        "steps": [
          {
            "arguments": [],
            "keyword": "Given ",
            "line": 6,
            "name": "Eu abro a home page",
            "result": {
              "status": "failed",
              "duration": 617000000,
              "error_message": "CypressError: `cy.visit()` failed trying to load:\n\nhttp://localhost:3000/\n\nWe attempted to make an http request to this URL but the request failed without a response.\n\nWe received this error at the network level:\n\n  > Error: connect ECONNREFUSED 127.0.0.1:3000\n\nCommon situations why this would fail:\n  - you don't have internet access\n  - you forgot to run / boot your web server\n  - your web server isn't accessible\n  - you have weird network configuration settings on your computer\n    at http://localhost:40223/__cypress/runner/cypress_runner.js:159109:23\n    at visitFailedByErr (http://localhost:40223/__cypress/runner/cypress_runner.js:158469:12)\n    at http://localhost:40223/__cypress/runner/cypress_runner.js:159108:11\nFrom previous event:\n    at go (http://localhost:40223/__cypress/runner/cypress_runner.js:159071:17)\n    at http://localhost:40223/__cypress/runner/cypress_runner.js:159137:20\nFrom previous event:\n    at visit (http://localhost:40223/__cypress/runner/cypress_runner.js:159135:38)\n    at Context.visit (http://localhost:40223/__cypress/runner/cypress_runner.js:159144:14)\nFrom Your Spec Code:\n    at Context.eval (http://localhost:40223/__cypress/tests?p=cypress/support/index.js:30:6)\n\nFrom Node.js Internals:\n  Error: connect ECONNREFUSED 127.0.0.1:3000\n      at TCPConnectWrap.afterConnect [as oncomplete] (net.js:1141:16)\n  \nFrom Your Spec Code:\n    at Context.eval (http://localhost:40223/__cypress/tests?p=cypress/support/index.js:30:6)"
            }
          },
          {
            "arguments": [],
            "keyword": "When ",
            "line": 7,
            "name": "Eu digito na barra de busca \"LuanPereiraLima\"",
            "result": {
              "status": "skipped"
            }
          },
          {
            "arguments": [],
            "keyword": "When ",
            "line": 8,
            "name": "Eu clico em Buscar",
            "result": {
              "status": "skipped"
            }
          },
          {
            "arguments": [],
            "keyword": "Then ",
            "line": 9,
            "name": "Eu vejo os carregamentos",
            "result": {
              "status": "skipped"
            }
          },
          {
            "arguments": [],
            "keyword": "Then ",
            "line": 10,
            "name": "Eu vejo o perfil do usuário, mapa para localização do usuário e lista de repositórios",
            "result": {
              "status": "skipped"
            }
          }
        ]
      },
      {
        "id": "cenário-buscas;buscando-segundo-usuário-para-medir-distancia-e-traçar-rota",
        "keyword": "Scenario",
        "line": 12,
        "name": "Buscando segundo usuário para medir distancia e traçar rota",
        "tags": [],
        "type": "scenario",
        "steps": [
          {
            "arguments": [],
            "keyword": "Given ",
            "line": 13,
            "name": "Eu abro a home page",
            "result": {
              "status": "failed",
              "duration": 627000000,
              "error_message": "CypressError: `cy.visit()` failed trying to load:\n\nhttp://localhost:3000/\n\nWe attempted to make an http request to this URL but the request failed without a response.\n\nWe received this error at the network level:\n\n  > Error: connect ECONNREFUSED 127.0.0.1:3000\n\nCommon situations why this would fail:\n  - you don't have internet access\n  - you forgot to run / boot your web server\n  - your web server isn't accessible\n  - you have weird network configuration settings on your computer\n    at http://localhost:40223/__cypress/runner/cypress_runner.js:159109:23\n    at visitFailedByErr (http://localhost:40223/__cypress/runner/cypress_runner.js:158469:12)\n    at http://localhost:40223/__cypress/runner/cypress_runner.js:159108:11\nFrom previous event:\n    at go (http://localhost:40223/__cypress/runner/cypress_runner.js:159071:17)\n    at http://localhost:40223/__cypress/runner/cypress_runner.js:159137:20\nFrom previous event:\n    at visit (http://localhost:40223/__cypress/runner/cypress_runner.js:159135:38)\n    at Context.visit (http://localhost:40223/__cypress/runner/cypress_runner.js:159144:14)\nFrom Your Spec Code:\n    at Context.eval (http://localhost:40223/__cypress/tests?p=cypress/support/index.js:30:6)\n\nFrom Node.js Internals:\n  Error: connect ECONNREFUSED 127.0.0.1:3000\n      at TCPConnectWrap.afterConnect [as oncomplete] (net.js:1141:16)\n  \nFrom Your Spec Code:\n    at Context.eval (http://localhost:40223/__cypress/tests?p=cypress/support/index.js:30:6)"
            }
          },
          {
            "arguments": [],
            "keyword": "When ",
            "line": 14,
            "name": "Eu digito na barra de busca \"mensonones\"",
            "result": {
              "status": "skipped"
            }
          },
          {
            "arguments": [],
            "keyword": "When ",
            "line": 15,
            "name": "Eu clico em Buscar",
            "result": {
              "status": "skipped"
            }
          },
          {
            "arguments": [],
            "keyword": "Then ",
            "line": 16,
            "name": "Eu vejo os carregamentos",
            "result": {
              "status": "skipped"
            }
          },
          {
            "arguments": [],
            "keyword": "Then ",
            "line": 17,
            "name": "Eu vejo o perfil do usuário, mapa para localização do usuário e lista de repositórios",
            "result": {
              "status": "skipped"
            }
          },
          {
            "arguments": [],
            "keyword": "When ",
            "line": 18,
            "name": "Eu digito na barra de busca do mapa \"LuanPereiraLima\"",
            "result": {
              "status": "skipped"
            }
          },
          {
            "arguments": [],
            "keyword": "When ",
            "line": 19,
            "name": "Eu clico em Comparar na busca do mapa",
            "result": {
              "status": "skipped"
            }
          },
          {
            "arguments": [],
            "keyword": "Then ",
            "line": 20,
            "name": "Eu vejo o carregamento da medição da distancia do traçamento da rota",
            "result": {
              "status": "skipped"
            }
          },
          {
            "arguments": [],
            "keyword": "Then ",
            "line": 21,
            "name": "Eu vejo dois pontos marcados no mapa com o primeiro usuário buscado e o segundo com a distância e rota criada",
            "result": {
              "status": "skipped"
            }
          }
        ]
      }
    ]
  }
]